Matricula,curps,maternos,paternos,rfcs,calles,proms_finals,nombres,nums_exteriores,colonias,moviles
NHYU4158769MHRDJN4,Guerrero,Jiménez,NHYU415876,Allá,9,Cesar,1,Interior,1548695321
BHTE416987BGFDER56,Rodríguez,Baez,BHTE416987,Aquí,9,Erika,10,Exterior,4859674563
NHYR143258VFRESD09,Almaraz,Esquivel,NHYR143258,lejos,8,Carlos,30,tienda,4859632147
RERS099878OIUIJU01,Saucedo,Pérez,RERS099878,cerca,7,Pedro,2,bosque,1258930157
UYTY478587LOLIUI00,Riveros,Barraza,UYTY478587,Al lado,10,Jorge,9,montaña,0218964753
IKUI012458YYTYUI10,Maldonado,Vásquez,IKUI012458,Al otro lado,7,Humberto,11,ciudad,1027896542
EREW343545JUJYHG00,Chávez,Castañón,EREW343545,En frente,10,Patricia,7,escuela,1529756384
MKJH876765UYUYTR03,González,Tizcareño,MKJH876765,Atras,8,Gloria,5,playa,1578903654